%YAML 1.1
%TAG !u! tag:unity3d.com,2011:
--- !u!1 &6401026449635754352
GameObject:
  m_ObjectHideFlags: 0
  m_CorrespondingSourceObject: {fileID: 0}
  m_PrefabInstance: {fileID: 0}
  m_PrefabAsset: {fileID: 0}
  serializedVersion: 6
  m_Component:
  - component: {fileID: 3428489190565738324}
  - component: {fileID: 7550888052277069177}
  m_Layer: 0
  m_Name: GameManager
  m_TagString: Untagged
  m_Icon: {fileID: 0}
  m_NavMeshLayer: 0
  m_StaticEditorFlags: 0
  m_IsActive: 1
--- !u!4 &3428489190565738324
Transform:
  m_ObjectHideFlags: 0
  m_CorrespondingSourceObject: {fileID: 0}
  m_PrefabInstance: {fileID: 0}
  m_PrefabAsset: {fileID: 0}
  m_GameObject: {fileID: 6401026449635754352}
  m_LocalRotation: {x: 0, y: 0, z: 0, w: 1}
  m_LocalPosition: {x: 0, y: 0, z: 0}
  m_LocalScale: {x: 1, y: 1, z: 1}
  m_Children: []
  m_Father: {fileID: 0}
  m_RootOrder: 0
  m_LocalEulerAnglesHint: {x: 0, y: 0, z: 0}
--- !u!114 &7550888052277069177
MonoBehaviour:
  m_ObjectHideFlags: 0
  m_CorrespondingSourceObject: {fileID: 0}
  m_PrefabInstance: {fileID: 0}
  m_PrefabAsset: {fileID: 0}
  m_GameObject: {fileID: 6401026449635754352}
  m_Enabled: 1
  m_EditorHideFlags: 0
  m_Script: {fileID: 11500000, guid: c4f789c37369a9e44b5b62a12e4d3ebd, type: 3}
  m_Name: 
  m_EditorClassIdentifier: 
  Levels:
  - CharacterCount: 10
    CharacterPrefabs:
    - {fileID: 9069844318005577177, guid: 578bac9c1521b474a9424d40b97599dd, type: 3}
    - {fileID: 9069844318005577177, guid: 179006425af63e246a3157bc963827e3, type: 3}
    Environment: {fileID: 5499918056811846209, guid: 2e60d010b1179b346af11b71d8dba69a,
      type: 3}
  - CharacterCount: 30
    CharacterPrefabs:
    - {fileID: 9069844318005577177, guid: c61ca51088821f54ba86b46d800f3430, type: 3}
    - {fileID: 9069844318005577177, guid: 578bac9c1521b474a9424d40b97599dd, type: 3}
    - {fileID: 9069844318005577177, guid: df299371ccda9724b8708ef0e0c6a6c4, type: 3}
    Environment: {fileID: 543766687666981411, guid: ee4c2d26f18291942abfe63c8a9a3359,
      type: 3}
